"Nazwa","Odpowiedź","E-mail","Tytuł","Numer telefonu","Manager","Numer telefonu komórkowego","Employee ID","Departament","Biografia","Specjalizacja","Lokalizacja","Firma","HR Contact","Office Cube","Floor","Dostępność","Preferred Address 1","Twitter","Preferred Address 2","LinkedIn","Facebook","Preferred Address 3","Preferred City","Preferred State","Preferred Post Code","Preferred Country","Assistant","Cost Center","SAP Company","SAP Location","Official Address 2","Official Address 1","Official Address 3","Official City","Official State","Official Post Code","Official Country","Location code","SBU","Business Unit","Job Family","Department code","University/College","Salutation","Preferred Last Name","Preferred Given Name","Middle Initial","Official Given Name","Official Last Name","Adres","Osobisty e-mail","Numer telefonu domowego","Adres domowy","Expiry Date","Data zatrudnienia","XMPP ID"
"Jakub Lukaczynski","Yes","jakub.lukaczynski@thomsonreuters.com","Analyst","","Wilk, Alicja","","6046273","Research","","","Gdynia","","Lewicka, Joanna","","","","","","","","","","","","","","","720463649","3649","","ul. Slaska 23/25","Baltic Business Centre","","Gdynia","","81319","Poland","C434","Refinitiv","CO COMS Risk Content & Services","Research","CO COMS Risk Content & Services","","","","","","","","","","","","","",""
"Katarzyna Skowronska","Yes","katarzyna.skowronska@thomsonreuters.com","Data Analyst, Level 2","'+48 503369474|work","Zytowiecka, Agnieszka","'+48 503369474|mobile","6039592","Content","","","Gdynia","","Kosiorek, Joanna","","","","","","","","","","","","","","","611113649","3649","","ul. Slaska 23/25","Baltic Business Centre","","Gdynia","","81319","Poland","C434","Refinitiv","CO COMS Contributed Content Ops","Content","CO COMS Contributed Content Ops","","","","","","","","","","","","","",""
"Aleksandra Solinska","Yes","aleksandra.solinska@thomsonreuters.com","Commercial Analyst","","Taormina, Emma","","6074584","Customer Service & Support","","","Gdynia","","Pranschke - Rudnicka, Patrycja","","","","","","","","","","","","","","","534763649","3649","","ul. Slaska 23/25","Baltic Business Centre","","Gdynia","","81319","Poland","C434","Refinitiv","CO Order & Rights Management Revelation","Customer Service & Support","CO Order & Rights Management Revelation","","","","","","","","","","","","","",""
"Mariusz Krynicki","Yes","mariusz.krynicki@thomsonreuters.com","Data Analyst, Level 2","'+48(48) 660065230|work","Szymeczko, Marta","'+48(48) 660065230|mobile","6066271","Content","","","Gdynia","","Kosiorek, Joanna","","","","","","","","","","","","","","","658913649","3649","","","Asseco Building, Podolska 21","","Gdynia","","81-321","Poland","1968","Refinitiv","CO COMS Core Reference & FI Reference","Content","CO COMS Core Reference & FI Reference","","","","","","","","","","","","","",""
"Maria Golda","Yes","maria.cieslik@thomsonreuters.com","KYC/AML Subject Matter Expert","'+48 587720676|work","Nagorska, Magdalena","","6024231","Research","","","Gdynia","","Lewicka, Joanna","","","","","","","","","","","","","","","721733649","3649","","","Asseco Building, Podolska 21","","Gdynia","","81-321","Poland","1968","Refinitiv","CO COMS Risk Content & Services","Research","CO COMS Risk Content & Services","","","","","","","","","","","","","",""
"Katarzyna Nogalska","Yes","katarzyna.nogalska@thomsonreuters.com","Regional Production Manager","'+48(58) 7720121|work","Sahu, Arvind","","8006911","Content","I started my journey with the company in October 2007 as Fundamentals Data Analyst in AGS team, covering also LatAm market. It was exciting period for me as I have just completed semester at University in Austria within the framework of Erasmus Exchange program. At the same time I was finishing last year of Economics studies at University of Gdansk, writing thesis, arranging a flat and organizing wedding.

In 2009 I was promoted to Quality Analyst and in 2010 to Senior Quality Analyst in Content Quality & Service team, managing Metrics for Fundamentals, Corax and Organization Authority departments. Quality times were also the times when I took over and was training a dog - golden retriever.

In may 2011 I joined Organization Authority team as Team Leader for DAGS market, in January 2013 became Team Leader of Italian & Portuguese team and as of March 2016 I was leading Cross Functional team. When being Team Leader at work I was also learning to raise my two daughters, who were born at the time when OA was growing as a team.

In my TL roles, as Global SPOC for Timeliness, Office 365 Testing, IP/UP Changes Report and SMA Global Exposure Plan, I created respective global RCAs, templates and processes. As Regional SPOC for Quality, Service and Capacity Planning, I prepared and launched Resolution Focus Initiative, CFT Show Cases and Capacity Trackers Reviews.  

In my current role of Regional Production Manager - since August 2017, I am leading CEM EMEA region: OA BAU, Hierarchy, Content Enhancement and Textual Data teams in two locations: Gdynia and Nicosia. Apart from managing regionally Capacity Planning and Headcounts, I am involved in various on site activities: TL Connect, Aspire, Early Career Program, Content Bootcamp, University Lectures to name a few.

In my free time I am focused on my family, which having 2 daughters and a dog, is taking majority of my time. I also enjoy travelling, horse riding and sailing as well as simply reading books, watching good movies and meeting with friends.

I believe that empathy is a key to harmony in every situation we find ourselves in.","Organization Authority, Fundamentals, Corax, Change Management, Remote Management","Gdynia","","Kosiorek, Joanna","","","","","","","","","","","","","","","658913649","3649","","","Asseco Building, Podolska 21","","Gdynia","","81-321","Poland","1968","Refinitiv","CO COMS Core Reference & FI Reference","Content","CO COMS Core Reference & FI Reference","","MRS","","","","","","","","","","","",""
"Matteo Lai","Yes","matteo.lai@thomsonreuters.com","Contractor","","Marcos Cantabrana, Ivan","","C255267","","","","Gdynia","","","","","","","","","","","","","","","","","611113649","3649","","","","","Gdynia","","","Poland","C434","Refinitiv","","","CO COMS Contributed Content Ops","","","","","","","","","","","","","",""
"Patryk Wawrzkiewicz","Yes","patryk.wawrzkiewicz@thomsonreuters.com","Product Usage Analyst","","Janiec, Angelika","","6070943","Product Management","","","Gdynia","","Osinska, Joanna","","","","","","","","","","","","","","","607613649","3649","","ul. Slaska 23/25","Baltic Business Centre","","Gdynia","","81319","Poland","C434","Refinitiv","CO Performance Excellence Reporting","Product Management","CO Performance Excellence Reporting","","","","","","","","","","","","","",""
"Jeffry Peller","Yes","j.peller@thomsonreuters.com","Senior Market Analyst","'+48 587 720 759|work","Rkein, Adam","","6032166","Content","","","Gdynia","","Kosiorek, Joanna","","","","","","","","","","","","","","","657213649","3649","","ul. Slaska 23/25","Baltic Business Centre","","Gdynia","","81319","Poland","C434","Refinitiv","CO COMS Core Reference & FI Reference","Content","CO COMS Core Reference & FI Reference","","","","","","","","","","","","","",""
"Katarzyna Cybula","Yes","katarzyna.cybula_old@thomsonreuters.com","Contractor","'+48 58 772 00 82|work","Werner, Lukasz","","C247889","","","Order Management Specialist","Gdynia","","","","3","","","","","","","","","","","","","534743649","3649","","","","","Gdynia","","","Poland","C434","Refinitiv","","","CO Order & Rights Management EMEA","University of Gdańsk","Miss","","","","","","","","","","","",""
"Michal Urbanski","Yes","michal.urbanski@thomsonreuters.com","Data Analyst, Level 2","'+48587721399|work","Beker, Krzysztof","","6067262","Content","","","Gdynia","","Kosiorek, Joanna","","","","","","","","","","","","","","","611113649","3649","","ul. Slaska 23/25","Baltic Business Centre","","Gdynia","","81319","Poland","C434","Refinitiv","CO COMS Contributed Content Ops","Content","CO COMS Contributed Content Ops","","","","","","","","","","","","","",""
"Agnieszka Rychert","Yes","agnieszka.rychert@thomsonreuters.com","Senior Financial Modelling and Conversion Specialist","'+48 58 772 05 52|work","Rolbiecka, Dominika","","8001941","Professional & Consulting Services","","","Gdynia","","Staniucha, Agata","","5","","Baltic Business Center","","ul Slaska 23/25","","","","Gdynia","","81319","Poland","","645513649","3649","","ul. Slaska 23/25","Baltic Business Centre","","Gdynia","","81319","Poland","C434","Refinitiv","CO Workflow Specialists Global Business Consulting","Professional & Consulting Services","CO Workflow Specialists Global Business Consulting","","MS","","","","","","","","","","","",""
"Ivan Avramenko","Yes","ivan.avramenko@thomsonreuters.com","Automation and Emerging Technology Analyst","","Serafin, Katarzyna","","6068127","Business Operations","","","Gdynia","","Staniucha, Agata","","","","","","","","","","","","","","","658613649","3649","","ul. Slaska 23/25","Baltic Business Centre","","Gdynia","","81319","Poland","C434","Refinitiv","CO Performance Excellence Database Quality Assurance","Business Operations","CO Performance Excellence Database Quality Assurance","","","","","","","","","","","","","",""
"Karolina Perwenis-Wachowska","Yes","karolina.perwenis@thomsonreuters.com","Senior Data Analyst","(+48) 586994716|work","Wasko, Aneta","","8001604","Content","","","Gdynia","","Kosiorek, Joanna","","5","","","","","","","","","","","","","655813649","3649","","ul. Slaska 23/25","Baltic Business Centre","","Gdynia","","81319","Poland","C434","Refinitiv","CO COMS Contributed Content Ops","Content","CO COMS Contributed Content Ops","","MS","","","","","","","","","","","",""
"Filip Dorozynski","Yes","filip.dorozynski@thomsonreuters.com","Product Usage Analyst","","Janiec, Angelika","","6064832","Product Management","","","Gdynia","","Osinska, Joanna","","","","","","","","","","","","","","","607613649","","","ul. Slaska 23/25","Baltic Business Centre","","Gdynia","","81319","Poland","C434","Refinitiv","CO Performance Excellence Reporting","Product Management","CO Performance Excellence Reporting","Gdansk University of Technology","Hello","","","","","","","","","","","",""
"Daniel Wysocki","Yes","daniel.wysocki@thomsonreuters.com","Data Analyst, Level 1","","Trzebinska, Dominika","","6073429","Content","","","Gdynia","","Kosiorek, Joanna","","","","","","","","","","","","","","","611113649","3649","","ul. Slaska 23/25","Baltic Business Centre","","Gdynia","","81319","Poland","C434","Refinitiv","CO COMS Contributed Content Ops","Content","CO COMS Contributed Content Ops","","","","","","","","","","","","","",""
"Monika Kordek","Yes","monika.kordek@thomsonreuters.com","Market Analyst, Level 1","'+48 587720992|work","Feliciano, Erica","","6038747","Content","","","Gdynia","","Kosiorek, Joanna","","","","","","","","","","","","","","","657213649","3649","","ul. Slaska 23/25","Baltic Business Centre","","Gdynia","","81319","Poland","C434","Refinitiv","CO COMS Core Reference & FI Reference","Content","CO COMS Core Reference & FI Reference","","","","","","","","","","","","","",""
"Maciej Lewa","Yes","maciej.lewa@thomsonreuters.com","Data Analyst, Level 2","","Doliwa, Aleksandra","","6073786","Content","","","Gdynia","","Kosiorek, Joanna","","","","","","","","","","","","","","","658913649","3649","","ul. Slaska 23/25","Asseco Building, Podolska 21","","Gdynia","","81-321","Poland","1968","Refinitiv","CO COMS Core Reference & FI Reference","Content","CO COMS Core Reference & FI Reference","","","","","","","","","","","","","",""
"Marta Wojciechowska","Yes","marta.wojciechowska@thomsonreuters.com","Data Analyst, Level 1","","Stanowska, Magdalena","","6068987","Content","","","Gdynia","","Kosiorek, Joanna","","","","","","","","","","","","","","","657513649","3649","","ul. Slaska 23/25","Baltic Business Centre","","Gdynia","","81319","Poland","C434","Refinitiv","CO COMS Real-time Pricing & Economics","Content","CO COMS Real-time Pricing & Economics","","","","","","","","","","","","","",""
"Michal Kraska","Yes","michal.kraska@thomsonreuters.com","Specialist, Core Entity Masters","","Stockton, Philip","'+48796469429|mobile","6022697","Content","","","Gdynia","","Pranschke - Rudnicka, Patrycja","","4","","","","","","","","","","","","","241463649","3649","","ul. Slaska 23/25","Baltic Business Centre","","Gdynia","","81319","Poland","C434","Refinitiv","CP Product, Content & Capability Mgmt","Content","CP Product, Content & Capability Mgmt","","","","","","","","","","","","","",""
"Tomasz Lemke","Yes","tomasz.lemke@thomsonreuters.com","Quality Analyst","","Dziadul, Katarzyna","","6071468","Content","","","Gdynia","","Kosiorek, Joanna","","","","","","","","","","","","","","","611113649","3649","","ul. Slaska 23/25","Baltic Business Centre","","Gdynia","","81319","Poland","C434","Refinitiv","CO Content Ops & Managed Services","Content","CO COMS Contributed Content Ops","","","","","","","","","","","","","",""
"Katarzyna Jezynska","Yes","katarzyna.jezynska@thomsonreuters.com","Research Analyst","","Hruba, Veronika","","6067042","Research","I joined Thomson Reuters as Data Analyst in Lipper Gdynia Italy Iberia LATAM Team in August 2016, working for the Italian market.","","Gdynia","","Lewicka, Joanna","","","","","","","","","","","","","","","721223649","3649","","ul. Slaska 23/25","Baltic Business Centre","","Gdynia","","81319","Poland","C434","Refinitiv","CO COMS Risk Content & Services","Research","CO COMS Risk Content & Services","","","","","","","","","","","","","",""
"Michal Lazewski","Yes","michal.lazewski@thomsonreuters.com","Customer On-Boarding Specialist","'+48 58 772 1496|work","Detyna, Benedykt","Internal&#58; 1311308|mobile","6016971","Project Management","","","Gdynia","","Staniucha, Agata","","","","","","","","","","","","","","","676213649","3649","","ul. Slaska 23/25","Baltic Business Centre","","Gdynia","","81319","Poland","C434","Refinitiv","CO CIPS Implementation Management","Project Management","CO CIPS Implementation Management","","","","","","","","","","","","","",""
"Katarzyna Jakubowska","Yes","katarzyna.jakubowska@thomsonreuters.com","Senior Data Analyst","","Marcos Cantabrana, Ivan","","6073222","Content","","","Gdynia","","Kosiorek, Joanna","","","","","","","","","","","","","","","611113649","3649","","ul. Slaska 23/25","Baltic Business Centre","","Gdynia","","81319","Poland","C434","Refinitiv","CO COMS Contributed Content Ops","Content","CO COMS Contributed Content Ops","","","","","","","","","","","","","",""
"Marta Stefanska","Yes","marta.tyszer@thomsonreuters.com","Data Specialist","'+48587720213|work","Verma, Deepak Kumar","","0173199","Content","","","Gdynia","","Kosiorek, Joanna","","","","","","","","","","","","","","","655813649","3649","","ul. Slaska 23/25","Baltic Business Centre","","Gdynia","","81319","Poland","C434","Refinitiv","CO COMS Contributed Content Ops","Content","CO COMS Contributed Content Ops","","","","","","","","","","","","","",""
"Diana Leite","Yes","diana.leite_old@thomsonreuters.com","Contractor","","Lechecki, Marcin","","C254835","","","","Gdynia","","","","","","","","","","","","","","","","","657213649","3649","","","","","Gdynia","","","Poland","C434","Refinitiv","","","CO COMS Core Reference & FI Reference","","","","","","","","","","","","","",""
"Joao Cerca","Yes","joao.cerca@thomsonreuters.com","Process Improvement and Automation Analyst","'+48 587720494|work","Kawczynski, Krzysztof","","6036879","Content","http://hiderto.tumblr.com","","Gdynia","","Kosiorek, Joanna","","","","","","","","","","","","","","","241113649","3649","","ul. Slaska 23/25","Asseco Building, Podolska 21","","Gdynia","","81-321","Poland","1968","Refinitiv","CO COMS Real-time Pricing & Economics","Content","CO COMS Real-time Pricing & Economics","","","","","","","","","","","","","",""
"Ivan Marcos Cantabrana","Yes","ivan.marcos@thomsonreuters.com","Team Leader","'+48 (58) 7720716|work","Karlicki, Michal","","0116038","Content","I joined Lipper Content as Data Analyst in Fincom Team for the Spanish and Portuguese markets in Gdynia in 2008. In 2010 I became Senior Data analyst for the Italian Team in Lipper Content. In 2014 I became Team Leader for Pricing and Performance, managing the Lipper Gdynia Italy Iberia LATAM Team. We cover 32.000+ Active Funds (Including Mutual fund, Pension Funds, Hedge funds, ETFs and Real State Funds), domiciled in 12 different countries (Spain (in-Andorra), Portugal, Italy, Luxembourg, Ireland, Brazil, Argentina, Mexico, Chile, Peru, Colombia and Puerto Rico).","Pricing and Performance, Lipper Content, Lipper for Investment Management, Funds Data, Project Management, EIKON Fund Screener","Gdynia","","Lewicka, Joanna","6/2","6","","","","","","","","","","","","","611113649","3649","","ul. Slaska 23/25","Baltic Business Centre","","Gdynia","","81319","Poland","C434","Refinitiv","CO COMS Contributed Content Ops","Content","CO COMS Contributed Content Ops","","","","","","","","","","","","","",""
"Mercedes Zapolska","Yes","mercedesstefania.zapolska@thomsonreuters.com","Technical Specialist","","Razynski, Jan","","6073202","Professional & Consulting Services","","","Gdynia","","Staniucha, Agata","","","","","","","","","","","","","","","676313649","3649","","ul. Slaska 23/25","Baltic Business Centre","","Gdynia","","81319","Poland","C434","Refinitiv","CO Technical & Trading Specialists EMEA","Professional & Consulting Services","CO Technical & Trading Specialists EMEA","","","","","","","","","","","","","",""
"Jowita Lukaczynska","Yes","jowita.lukaczynska@thomsonreuters.com","Commercial Analyst","","Taormina, Emma","","6031648","Customer Service & Support","","","Gdynia","","Pranschke - Rudnicka, Patrycja","","","","","","","","","","","","","","","534763649","3649","","ul. Slaska 23/25","Baltic Business Centre","","Gdynia","","81319","Poland","C434","Refinitiv","CO Order & Rights Management Revelation","Customer Service & Support","CO Order & Rights Management Revelation","","","","","","","","","","","","","",""
"Julie Lima de Perez","Yes","julie.limadeperez@thomsonreuters.com","Research Analyst","","Henriques, Victor","","6071672","Research","","","Gdynia","","Lewicka, Joanna","","","","","","","","","","","","","","","721223649","3649","","ul. Slaska 23/25","Baltic Business Centre","","Gdynia","","81319","Poland","C434","Refinitiv","CO COMS Risk Content & Services","Research","CO COMS Risk Content & Services","","","","","","","","","","","","","",""
"Maciej Piekarski","Yes","maciej.piekarski@thomsonreuters.com","Technical Implementation Specialist","","Kudelski, Artur","","6076736","Professional & Consulting Services","","","Gdynia","","Staniucha, Agata","","","","","","","","","","","","","","","676413649","3649","","ul. Slaska 23/25","Baltic Business Centre","","Gdynia","","81319","Poland","C434","Refinitiv","CO Customer Implementation & Prof Svcs","Professional & Consulting Services","CO CIPS Technical Implementation Specialists","","","","","","","","","","","","","",""
"Piotr Marciniak","Yes","piotr.marciniak@thomsonreuters.com","Quality Control Specialist","","Markowska, Marta","","6066454","Research","","","Gdynia","","Lewicka, Joanna","","","","","","","","","","","","","","","721733649","3649","","ul. Slaska 23/25","Baltic Business Centre","","Gdynia","","81319","Poland","C434","Refinitiv","CO COMS Risk Content & Services","Research","CO COMS Risk Content & Services","","","","","","","","","","","","","",""
"Maciej Mazur","Yes","maciej.mazur@thomsonreuters.com","Technical Specialist","'+48 58 772 1103|work","Malik, Michal","","6016777","Professional & Consulting Services","","","Gdynia","","Staniucha, Agata","","","","","","","","","","","","","","","641913649","3649","","ul. Slaska 23/25","Baltic Business Centre","","Gdynia","","81319","Poland","C434","Refinitiv","CO Technical & Trading Specialists EMEA","Professional & Consulting Services","CO Technical & Trading Specialists EMEA","","","","","","","","","","","","","",""
"Virginia Alves","Yes","virginia.alves@thomsonreuters.com","Research Analyst","","Guedes, Donovan","","6037696","Research","BA in History, post-graduation in Teaching. Multiple interests led me to perform different activities until enter to Thomson Reuters - Radio, Web Design, Teaching. The opportunity and the challenge of working in this great company appeared in February 2016 as a Data Analyst for Lipper Italy Iberia Latam Team (Pricing and Performance), dedicated to the Brazilian market. Currently Research Analyst to World Check.","Brazilian Investment Funds Market, in particularly Real Estate and Alternatives.","Gdynia","","Lewicka, Joanna","","","","","","","","","","","","","","","721223649","3649","","ul. Slaska 23/25","Baltic Business Centre","","Gdynia","","81319","Poland","C434","Refinitiv","CO COMS Risk Content & Services","Research","CO COMS Risk Content & Services","","","","","","","","","","","","","",""
"Sergey Platov","Yes","sergey.platov@thomsonreuters.com","Asset Servicing Consultant","'+48 663910013|work","Halligan, Michael","'+48 663910013|mobile","0151484","Professional & Consulting Services","Oct 2016 - present
Asset Servicing Consultant in P&CS

Nov 2014 - Oct 2016
Content Service Specialist in SCS

Sep 2011 - Nov 2014
Real-time and Reference Data Analyst in ETI (Russian & CIS markets)

Out of office 2018:
31.05-22.06.","Leader of the Learning Languages initiative in Gdynia:
https://thehub.thomsonreuters.com/docs/DOC-835012

Language skills:
- Russian (native)
- Polish (native)
- English (fluent)
- German (intermediate)
- French (basic)
- Italian (learning)","Gdynia","","Staniucha, Agata","","","","","","","","","","","","","","","286393649","3649","","ul. Slaska 23/25","Baltic Business Centre","","Gdynia","","81319","Poland","C434","Refinitiv","CO Workflow Specialists Asset Servicing","Professional & Consulting Services","CO Workflow Specialists Asset Servicing","","","","","","","","","","","","","",""
"Maciej Ledke","Yes","maciej.ledke@thomsonreuters.com","Systems Engineer","'+48587721486|work","Kudelski, Artur","","6069247","Professional & Consulting Services","","","Gdynia","","Staniucha, Agata","","","","","","","","","","","","","","","676413649","3649","","ul. Slaska 23/25","Baltic Business Centre","","Gdynia","","81319","Poland","C434","Refinitiv","CO CIPS Technical Implementation Specialists","Professional & Consulting Services","CO CIPS Technical Implementation Specialists","","","","","","","","","","","","","",""
"Marta Brzezinska","Yes","marta.brzezinska@thomsonreuters.com","Data Analyst, Level 1","","Dubiela, Dorota","","6065115","Content","","","Gdynia","","Kosiorek, Joanna","","","","","","","","","","","","","","","655213649","3649","","ul. Slaska 23/25","Baltic Business Centre","","Gdynia","","81319","Poland","C434","Refinitiv","CO COMS Company Financials","Content","CO COMS Company Financials","","","","","","","","","","","","","",""
"Julia Liszka","Yes","julia.liszka@thomsonreuters.com","Case Management Analyst","","Halder, Natalia","","6071778","Research","","","Gdynia","","Staniucha, Agata","","","","","","","","","","","","","","","721733649","3649","","ul. Slaska 23/25","Baltic Business Centre","","Gdynia","","81319","Poland","C434","Refinitiv","CO COMS Risk Content & Services","Research","CO COMS Risk Content & Services","","","","","","","","","","","","","",""
"Artur Kudelski","Yes","artur.kudelski@thomsonreuters.com","Remote Fulfillment Manager - Europe","'+48(58) 7720257|work","Dang, Grace","'+48 609603384|mobile","0147136","Professional & Consulting Services","","","Gdynia","","Staniucha, Agata","","5","","Baltic Business Centre","","ul. Slaska 23/25","","","","Gdynia","","81319","Poland","","676413649","3649","","ul. Slaska 23/25","Baltic Business Centre","","Gdynia","","81319","Poland","C434","Refinitiv","CO CIPS Technical Implementation Specialists","Professional & Consulting Services","CO CIPS Technical Implementation Specialists","","","","","","","","","","","","","",""
"Jakub Kupracz","Yes","jakub.kupracz@thomsonreuters.com","Exchange Content Specialist","'+48587721652|work","Tukalska, Agnieszka","","6013963","Content","From small village to city, 
counting equities, learning strategies.","Foreign languages, psychology, education, teaching methods","Gdynia","","Lewicka, Joanna","","","","","","","","","","","","","","","657513649","3649","","ul. Slaska 23/25","Baltic Business Centre","","Gdynia","","81319","Poland","C434","Refinitiv","CO COMS Real-time Pricing & Economics","Content","CO COMS Real-time Pricing & Economics","University of Gdańsk","","","","","","","","","","","","",""
"Artur Zarnowski","Yes","artur.zarnowski@thomsonreuters.com","Quantitative Derivatives Evaluator","'+48 58 772 0986|work","Nowik, Marek","","0161718","Product Management","","","Gdynia","","Kosiorek, Joanna","","","","","","","","","","","","","","","657013649","3649","","ul. Slaska 23/25","Baltic Business Centre","","Gdynia","","81319","Poland","C434","Refinitiv","CO COMS Evaluated Pricing Ops","Product Management","CO COMS Evaluated Pricing Ops","","","","","","","","","","","","","",""
"Maciej Leczkowski","Yes","m.leczkowski@thomsonreuters.com","Data Analyst, Level 1","","Mocnik, Matija","","6073937","Content","","","Gdynia","","Kosiorek, Joanna","","","","","","","","","","","","","","","657513649","3649","","ul. Slaska 23/25","Baltic Business Centre","","Gdynia","","81319","Poland","C434","Refinitiv","CO COMS Real-time Pricing & Economics","Content","CO COMS Real-time Pricing & Economics","","","","","","","","","","","","","",""
"Beata Chmielewska","Yes","beata.chmielewska@thomsonreuters.com","Data Specialist","","Kovalenko, Maria","","6071491","Content","","","Gdynia","","Lewicka, Joanna","","","","","","","","","","","","","","","657313649","3649","","ul. Slaska 23/25","Baltic Business Centre","","Gdynia","","81319","Poland","C434","Refinitiv","CO COMS Commodities Content & Research","Content","CO COMS Commodities Content & Research","","","","","","","","","","","","","",""
"Agnieszka Brylka","Yes","agnieszka.w.jelinska@thomsonreuters.com","Senior Market Analyst","'+48 587720024|work","Szymeczko, Marta","","6033903","Content","","","Gdynia","","Kosiorek, Joanna","","","","","","","","","","","","","","","658913649","3649","","","Asseco Building, Podolska 21","","Gdynia","","81-321","Poland","1968","Refinitiv","CO COMS Core Reference & FI Reference","Content","CO COMS Core Reference & FI Reference","","","","","","","","","","","","","",""
"Przemyslaw Kolodziej","Yes","przemyslaw.kolodziej@thomsonreuters.com","Content Layout Analyst","","Kovalenko, Maria","","6066818","Content","","","Gdynia","","Lewicka, Joanna","","","","","","","","","","","","","","","657313649","3649","","ul. Slaska 23/25","Baltic Business Centre","","Gdynia","","81319","Poland","C434","Refinitiv","CO COMS Commodities Content & Research","Content","CO COMS Commodities Content & Research","","","","","","","","","","","","","",""
"Karolina Beiger","Yes","karolina.beiger@thomsonreuters.com","Content Specialist","'+48-606-618-195|work","Wojciechowska, Anna (ania)","'+48-606-618-195|mobile","8017209","Content","","","Gdynia","","Kosiorek, Joanna","","","","","","","","","","","","","","","241113649","3649","","","Asseco Building, Podolska 21","","Gdynia","","81-321","Poland","1968","Refinitiv","CO COMS Real-time Pricing & Economics","Content","CO COMS Real-time Pricing & Economics","","MS","","","","","","","","","","","",""
"Tomasz Michna","Yes","tomasz.michna@thomsonreuters.com","Senior Market Analyst","","Stanowska, Magdalena","","6067118","Content","","","Gdynia","","Kosiorek, Joanna","","","","","","","","","","","","","","","657513649","3649","","ul. Slaska 23/25","Baltic Business Centre","","Gdynia","","81319","Poland","C434","Refinitiv","CO COMS Real-time Pricing & Economics","Content","CO COMS Real-time Pricing & Economics","","","","","","","","","","","","","",""
"Monika Suchomska","Yes","monika.suchomska@thomsonreuters.com","Data Analyst, Level 1","'+48 587 720 427|work","Plotka, Patrycja","","6035133","Content","","","Gdynia","","Kosiorek, Joanna","","","","","","","","","","","","","","","657313649","3649","","ul. Slaska 23/25","Baltic Business Centre","","Gdynia","","81319","Poland","C434","Refinitiv","CO COMS Commodities Content & Research","Content","CO COMS Commodities Content & Research","","","","","","","","","","","","","",""
"Filip Koleda","Yes","f.koleda@thomsonreuters.com","Index Specialist","'+48 58 772 0245|work","Trueman, Claire","","6038903","Content","","","Gdynia","","Kosiorek, Joanna","","6","","","","","","","","","","","","","611113649","3649","","ul. Slaska 23/25","Baltic Business Centre","","Gdynia","","81319","Poland","C434","Refinitiv","CO COMS Contributed Content Ops","Content","CO COMS Contributed Content Ops","","","","","","","","","","","","","",""
"Andrea Barbarewicz","Yes","andrea.barbarewicz@thomsonreuters.com","Customer On-Boarding Specialist","'+48(58) 7720079|work","Langowska, Jagoda","","8019780","Project Management","","","Gdynia","","Staniucha, Agata","","","","","","","","","","","","","","","676213649","3649","","ul. Slaska 23/25","Baltic Business Centre","","Gdynia","","81319","Poland","C434","Refinitiv","CO CIPS Implementation Management","Project Management","CO CIPS Implementation Management","Universita degli Studi di Pavia","","","","","","","","","","","","",""
"Regina Rebinin","Yes","regina.rebinin@thomsonreuters.com","Fixed Income Bond Evaluation Analyst","'+48 58 772 1654|work","Nowik, Marek","","6070990","Content","","","Gdynia","","Kosiorek, Joanna","","","","","","","","","","","","","","","657013649","3649","","ul. Slaska 23/25","Baltic Business Centre","","Gdynia","","81319","Poland","C434","Refinitiv","CO COMS Evaluated Pricing Ops","Content","CO COMS Evaluated Pricing Ops","","","","","","","","","","","","","",""
"Daniel Sobotko","Yes","daniel.sobotko@thomsonreuters.com","Data Analyst, Level 2","","Kupper, Agnieszka","","6071233","Content","","","Gdynia","","Kosiorek, Joanna","","","","","","","","","","","","","","","611113649","3649","","ul. Slaska 23/25","Baltic Business Centre","","Gdynia","","81319","Poland","C434","Refinitiv","CO COMS Contributed Content Ops","Content","CO COMS Contributed Content Ops","","","","","","","","","","","","","",""
"Michal Szczukowski","Yes","michal.szczukowski@thomsonreuters.com","Case Management Analyst","","Halder, Natalia","","6071370","Research","","","Gdynia","","Staniucha, Agata","","","","","","","","","","","","","","","721733649","3649","","ul. Slaska 23/25","Baltic Business Centre","","Gdynia","","81319","Poland","C434","Refinitiv","CO COMS Risk Content & Services","Research","CO COMS Risk Content & Services","","","","","","","","","","","","","",""
"Carlos Castellano","Yes","carlos.castellanocancho@thomsonreuters.com","Data Analyst, Level 2","","Csiki, Emese","","6068626","Content","","","Gdynia","","Kosiorek, Joanna","","","","","","","","","","","","","","","655313649","3649","","ul. Slaska 23/25","Baltic Business Centre","","Gdynia","","81319","Poland","C434","Refinitiv","CO COMS Core Reference & FI Reference","Content","CO COMS Core Reference & FI Reference","","","","","","","","","","","","","",""
"Furkan Zopun","Yes","furkan.zopun@thomsonreuters.com","Senior Data Analyst","'+48 587720825|work","Mocnik, Matija","","6023330","Content","","","Gdynia","","Kosiorek, Joanna","","","","","","","","","","","","","","","657513649","3649","","ul. Slaska 23/25","Baltic Business Centre","","Gdynia","","81319","Poland","C434","Refinitiv","CO COMS Real-time Pricing & Economics","Content","CO COMS Real-time Pricing & Economics","","","","","","","","","","","","","",""
"Maciej Mieczkowski","Yes","maciej.mieczkowski@thomsonreuters.com","Case Management Analyst","","Lacki, Piotr","507739845|mobile","6070665","Research","","","Gdynia","","Staniucha, Agata","","","","","","","","","","","","","","","721733649","3649","","ul. Slaska 23/25","Baltic Business Centre","","Gdynia","","81319","Poland","C434","Refinitiv","CO COMS Risk Content & Services","Research","CO COMS Risk Content & Services","","","","","","","","","","","","","",""
"Tomasz Tryzna","Yes","tomasz.tryzna@thomsonreuters.com","Technical Specialist","'+48 58 7720880|work","Targanski, Tomasz","'+48606370273|mobile","6031781","Professional & Consulting Services","","","Gdynia","","Staniucha, Agata","","","","","","","","","","","","","","","641913649","","","ul. Slaska 23/25","Baltic Business Centre","","Gdynia","","81319","Poland","C434","Refinitiv","CO Technical & Trading Specialists Asia","Professional & Consulting Services","CO Technical & Trading Specialists Asia","Warsaw School of Economics","","","","","","","","","","","","",""
"Adrianna Suminska","Yes","adrianna.suminska@thomsonreuters.com","Data Analyst, Level 2","","Zytowiecka, Agnieszka","","6066154","Content","","","Gdynia","","Kosiorek, Joanna","","","","","","","","","","","","","","","611113649","3649","","ul. Slaska 23/25","Baltic Business Centre","","Gdynia","","81319","Poland","C434","Refinitiv","CO COMS Contributed Content Ops","Content","CO COMS Contributed Content Ops","","","","","","","","","","","","","",""
"Anna Lukasiewicz","Yes","anna.lukasiewicz@thomsonreuters.com","Data Analyst, Pricing and Performance","'+48587721537|work","Marcos Cantabrana, Ivan","'+48608702103|mobile","6067299","Content","","","Gdynia","","Kosiorek, Joanna","","","","Gdanska 26 / 53","","","","","","Rumia","pomorskie","84-230","Poland","","611113649","3649","","ul. Slaska 23/25","Baltic Business Centre","","Gdynia","","81319","Poland","C434","Refinitiv","CO COMS Contributed Content Ops","Content","CO COMS Contributed Content Ops","Politechnika Gdańska","","","","","","","","","","","","",""
"Robert Tryzna","Yes","robert.a.tryzna@thomsonreuters.com","Partner Manager","'+48 587720996|work","Baker Relf, Kerry","'+48 665554496|mobile","6025798","Sourcing","","","Gdynia","","Pranschke - Rudnicka, Patrycja","","","","","","","","","","","","","","","696613649","3649","","ul. Slaska 23/25","Baltic Business Centre","","Gdynia","","81319","Poland","C434","Refinitiv","Sales & Acct Mgmt Partners","Sourcing","Sales & Acct Mgmt Partners","","","","","","","","","","","","","",""
"Iza Tyminska","Yes","iza.tyminska@thomsonreuters.com","Data Analyst","","Frankowski, Piotr","","6076271","Content","","","Gdynia","","Kosiorek, Joanna","","","","","","","","","","","","","","","655213649","3649","","ul. Slaska 23/25","Baltic Business Centre","","Gdynia","","81319","Poland","C434","Refinitiv","CO COMS Company Financials","Content","CO COMS Company Financials","","","","","","","","","","","","","",""
"Serhat Ozdilim","Yes","serhat.ozdilim@thomsonreuters.com","Data Analyst, Level 2","","Skowron, Aleksandra","","6078522","Content","","","Gdynia","","Kosiorek, Joanna","","","","","","","","","","","","","","","658913649","3649","","","Asseco Building, Podolska 21","","Gdynia","","81-321","Poland","1968","Refinitiv","CO COMS Core Reference & FI Reference","Content","CO COMS Core Reference & FI Reference","","","","","","","","","","","","","",""
"Aleksandra Doliwa","Yes","aleksandra.doliwa@thomsonreuters.com","Team Leader","'+48587720437|work","Rudnicki, Michal","","6015681","Content","","","Gdynia","","Lewicka, Joanna","","","","","","","","","","","","","","","658913649","3649","","","Asseco Building, Podolska 21","","Gdynia","","81-321","Poland","1968","Refinitiv","CO COMS Core Reference & FI Reference","Content","CO COMS Core Reference & FI Reference","","","","","","","","","","","","","",""
"Serge Lapitzki","Yes","sergei.lapitzki@thomsonreuters.com","Digital Advisor- Marketing","","Durrant, Tina","","6066930","Marketing","","","Gdynia","","Pranschke - Rudnicka, Patrycja","","","","","","","","","","","","","","","537003649","3649","","","Asseco Building, Podolska 21","","Gdynia","","81-321","Poland","1968","Refinitiv","M&C Digital","Marketing","M&C Digital","","","","","","","","","","","","","",""
"Monika Wludzik","Yes","monika.wludzik@thomsonreuters.com","Exchange Content Specialist","'+48 58 77 20 882|work","Sahu, Arvind","","6031963","Content","","Ownership Region/Markets: Corporate Actions EMEA
Contact Hotline: CoraxGdyniaAllStaff@thomsonreuters.com
Time of Coverage: 07:00-16:00 GMT
Out of Coverage Contact Hotline: +91 806 749 1334","Gdynia","","Kosiorek, Joanna","","","","","","","","","","","","","","","655313649","3649","","ul. Slaska 23/25","Baltic Business Centre","","Gdynia","","81319","Poland","C434","Refinitiv","CO COMS Core Reference & FI Reference","Content","CO COMS Core Reference & FI Reference","","","","","","","","","","","","","",""
"Dorota Sztukowska","Yes","dorota.sztukowska@thomsonreuters.com","Senior Data Analyst","'+48 58 772 0615|work","Szymeczko, Marta","","6024232","Content","","","Gdynia","","Kosiorek, Joanna","","","","","","","","","","","","","","","658913649","3649","","ul. Slaska 23/25","Baltic Business Centre","","Gdynia","","81319","Poland","C434","Refinitiv","CO COMS Core Reference & FI Reference","Content","CO COMS Core Reference & FI Reference","","","","","","","","","","","","","",""
"Maria Szymczak","Yes","maria.szymczak@thomsonreuters.com","Knowledge Management and Training Specialist","","Nagorska, Magdalena","","6035261","Content","","","Gdynia","","Lewicka, Joanna","","","","","","","","","","","","","","","721733649","3649","","","Asseco Building, Podolska 21","","Gdynia","","81-321","Poland","1968","Refinitiv","CO COMS Risk Content & Services","Content","CO COMS Risk Content & Services","","","","","","","","","","","","","",""
"Anna Niedzwiecka","Yes","anna.niedzwiecka@thomsonreuters.com","Research Analyst","","Guedes, Donovan","","6062271","Research","","","Gdynia","","Lewicka, Joanna","","","","","","","","","","","","","","","721223649","3649","","ul. Slaska 23/25","Baltic Business Centre","","Gdynia","","81319","Poland","C434","Refinitiv","CO COMS Risk Content & Services","Research","CO COMS Risk Content & Services","","","","","","","","","","","","","",""
"Monika Kitkowska","Yes","monika.kitkowska@thomsonreuters.com","Case Management Analyst","","Halder, Natalia","","6067772","Research","","","Gdynia","","Lewicka, Joanna","","","","","","","","","","","","","","","721733649","3649","","ul. Slaska 23/25","Baltic Business Centre","","Gdynia","","81319","Poland","C434","Refinitiv","CO COMS Risk Content & Services","Research","CO COMS Risk Content & Services","","","","","","","","","","","","","",""
"Michal Ringwelski","Yes","michal.ringwelski@thomsonreuters.com","Data Analyst, Level 2","","Kupper, Agnieszka","","6067703","Content","","","Gdynia","","Kosiorek, Joanna","","","","","","","","","","","","","","","611113649","3649","","ul. Slaska 23/25","Baltic Business Centre","","Gdynia","","81319","Poland","C434","Refinitiv","CO COMS Contributed Content Ops","Content","CO COMS Contributed Content Ops","","","","","","","","","","","","","",""
"Patrycja Piwowarczyk","Yes","patrycja.piwowarczyk@thomsonreuters.com","Senior Case Management Analyst","","Halder, Natalia","","6064973","Research","","","Gdynia","","Lewicka, Joanna","","","","","","","","","","","","","","","721733649","3649","","ul. Slaska 23/25","Baltic Business Centre","","Gdynia","","81319","Poland","C434","Refinitiv","CO COMS Risk Content & Services","Research","CO COMS Risk Content & Services","","","","","","","","","","","","","",""
"Patryk Mroczek","Yes","patryk.mroczek@thomsonreuters.com","Data Analyst, Level 2","","Zytowiecka, Agnieszka","","6073789","Content","","","Gdynia","","Kosiorek, Joanna","","6","","","","","","","","","","","","","611113649","3649","","ul. Slaska 23/25","Baltic Business Centre","","Gdynia","","81319","Poland","C434","Refinitiv","CO COMS Contributed Content Ops","Content","CO COMS Contributed Content Ops","University of Gdansk","","","","","","","","","","","","",""
"Leszek Krajnik","Yes","leszek.krajnik@thomsonreuters.com","Consultant","'+48 (58) 7721106|work","Younes, Thea","'+48 691 101 776|mobile","6072622","Professional & Consulting Services","","","Gdynia","","Staniucha, Agata","","1","","","","","","","","","","","","","645513649","3649","","ul. Slaska 23/25","Baltic Business Centre","","Gdynia","","81319","Poland","C434","Refinitiv","CO Workflow Specialists Global Business Consulting","Professional & Consulting Services","CO Workflow Specialists Global Business Consulting","","","","","","","","","","","","","",""
"Anna Dabrowska","Yes","anna.dabrowska@thomsonreuters.com","Senior Data Analyst","'+48587720977|work","Kalenik-Wezykowska, Natalia","","6037454","Content","","","Gdynia","","Kosiorek, Joanna","","","","","","","","","","","","","","","655213649","3649","","ul. Slaska 23/25","Baltic Business Centre","","Gdynia","","81319","Poland","C434","Refinitiv","CO COMS Company Financials","Content","CO COMS Company Financials","","","","","","","","","","","","","",""
"Olaf Bolek","Yes","olaf.bolek@thomsonreuters.com","Consultant","'+48587721112|work","Etheart, Jonathan","'+48607170849|mobile","0136570","Professional & Consulting Services","","","Gdynia","","Staniucha, Agata","GBC","1","","","","","","","","","","","","","286393649","3649","","ul. Slaska 23/25","Baltic Business Centre","","Gdynia","","81319","Poland","C434","Refinitiv","CO Workflow Specialists Global Business Consulting","Professional & Consulting Services","CO Workflow Specialists Global Business Consulting","","","","","","","","","","","","","",""
"Aleksandra Romanowska","Yes","aleksandra.romanowska@thomsonreuters.com","Data Analyst, Level 2","","Marcos Cantabrana, Ivan","","6073182","Content","","","Gdynia","","Kosiorek, Joanna","","6","","","","","","","","","","","","","611113649","3649","","ul. Slaska 23/25","Baltic Business Centre","","Gdynia","","81319","Poland","C434","Refinitiv","CO COMS Contributed Content Ops","Content","CO COMS Contributed Content Ops","","","","","","","","","","","","","",""
"Malgorzata Jazdzewska","Yes","m.smietana@thomsonreuters.com","Senior Data Analyst","","Marcos Cantabrana, Ivan","","6046762","Content","I joined TR in June 2016 to Lipper Content Team. Initially, I was taking care of Mexican investment funds. After half of year, I have started to take care of Spanish Market. In December 2018 I became Senior Data Analyst.","","Gdynia","","Kosiorek, Joanna","","","","","","","","","","","","","","","611113649","3649","","ul. Slaska 23/25","Baltic Business Centre","","Gdynia","","81319","Poland","C434","Refinitiv","CO Content Ops & Managed Services","Content","CO COMS Contributed Content Ops","","","","","","","","","","","","","",""
"Adriana Malicka","Yes","adriana.malicka@thomsonreuters.com","Outsourcing Specialist","","Naik, Vanita","","6074073","Research","","","Gdynia","","Lewicka, Joanna","","","","","","","","","","","","","","","720463649","3649","","ul. Slaska 23/25","Baltic Business Centre","","Gdynia","","81319","Poland","C434","Refinitiv","CO COMS Risk Content & Services","Research","CO COMS Risk Content & Services","","","","","","","","","","","","","",""
"Agnieszka Lejwoda","Yes","agnieszka.lejwoda@thomsonreuters.com","Senior Learning Consultant","'+48 58 772 0508|work","Biniszewski, Michal","","0136858","Product / Process Training","","","Gdynia","","Staniucha, Agata","","5","","","","","","","","","","","","","607613649","3649","","ul. Slaska 23/25","Baltic Business Centre","","Gdynia","","81319","Poland","C434","Refinitiv","CO Performance Excellence","Product / Process Training","CO Performance Excellence Learning & Development","","","","","","","","","","","","","",""
"Patrycja Gruba","Yes","patrycja.gruba@thomsonreuters.com","Senior Content Analyst","'+48587720803|work","Sobkowiak, Agnieszka","","6045526","Content","","","Gdynia","","Kosiorek, Joanna","","","","","","","","","","","","","","","657513649","3649","","ul. Slaska 23/25","Baltic Business Centre","","Gdynia","","81319","Poland","C434","Refinitiv","CO COMS Real-time Pricing & Economics","Content","CO COMS Real-time Pricing & Economics","","","","","","","","","","","","","",""
"Jakub Milinkiewicz","Yes","jakub.milinkiewicz@thomsonreuters.com","Data Analyst, Level 2","","Cheng, Fenylene","","6072991","Content","","","Gdynia","","Kosiorek, Joanna","","","","","","","","","","","","","","","611713649","3649","","ul. Slaska 23/25","Baltic Business Centre","","Gdynia","","81319","Poland","C434","Refinitiv","CO COMS Contributed Content Ops","Content","CO COMS Contributed Content Ops","","","","","","","","","","","","","",""
"Michal Tubaja","Yes","michal.tubaja@thomsonreuters.com","Data Analyst, Level 2","","Skowron, Aleksandra","","6069153","Content","","","Gdynia","","Kosiorek, Joanna","","","","","","","","","","","","","","","658913649","3649","","","Asseco Building, Podolska 21","","Gdynia","","81-321","Poland","1968","Refinitiv","CO COMS Core Reference & FI Reference","Content","CO COMS Core Reference & FI Reference","","","","","","","","","","","","","",""
"Joanna Babinska","Yes","joanna.babinska@thomsonreuters.com","Exchange Content Specialist","'+48(58) 7720597|work","Basavaraju, Sowmya Lakshmi","","6025068","Content","","","Gdynia","","Kosiorek, Joanna","","","","","","","","","","","","","","","657513649","3649","","ul. Slaska 23/25","Baltic Business Centre","","Gdynia","","81319","Poland","C434","Refinitiv","CO COMS Real-time Pricing & Economics","Content","CO COMS Real-time Pricing & Economics","","","","","","","","","","","","","",""
"Natalia Lagus","Yes","natalia.lagus@thomsonreuters.com","Content Specialist","48 58 7720898|work","Prabhakar, Divya","","0144309","Content","","","Gdynia","","Kosiorek, Joanna","","2","","Baltic Business Centre","","ul. Slaska 23/25","","","","Gdynia","","81319","Poland","","657313649","3649","","ul. Slaska 23/25","Baltic Business Centre","","Gdynia","","81319","Poland","C434","Refinitiv","CO COMS Commodities Content & Research","Content","CO COMS Commodities Content & Research","","","","","","","","","","","","","",""
"Igor Hamernik","Yes","igor.hamernik@thomsonreuters.com","Data Analyst, Level 2","'+48587720743|work","Lashch, Arthur","","6073186","Content","","","Gdynia","","Kosiorek, Joanna","","6","","","","","","","","","","","","","611113649","3649","","ul. Slaska 23/25","Baltic Business Centre","","Gdynia","","81319","Poland","C434","Refinitiv","CO COMS Contributed Content Ops","Content","CO COMS Contributed Content Ops","","","","","","","","","","","","","",""
"Paula Zabinska","Yes","paula.zabinska@thomsonreuters.com","Financial Modelling and Conversion Associate","","Rudzionek, Robert","","6072949","Professional & Consulting Services","","","Gdynia","","Staniucha, Agata","","","","","","","","","","","","","","","645513649","3649","","ul. Slaska 23/25","Baltic Business Centre","","Gdynia","","81319","Poland","C434","Refinitiv","CO Workflow Specialists","Professional & Consulting Services","CO Workflow Specialists","","","","","","","","","","","","","",""
"Dominika Rolbiecka","Yes","dominika.rolbiecka@thomsonreuters.com","Manager, Financial Modelling & Conversions","'+48(58)7720303|work","Pak, Annie","'+48 609 605 207|mobile","0158450","Customer Service & Support","","","Gdynia","","Staniucha, Agata","","","","","","","","","","","","","","","645513649","3649","","ul. Slaska 23/25","Baltic Business Centre","","Gdynia","","81319","Poland","C434","Refinitiv","CO Workflow Specialists Global Business Consulting","Customer Service & Support","CO Workflow Specialists Global Business Consulting","","","","","","","","","","","","","",""
"Daria Ludwicka","Yes","daria.ludwicka@thomsonreuters.com","Product Usage Analyst","","Janiec, Angelika","","6072394","Product Management","","","Gdynia","","Staniucha, Agata","","","","","","","","","","","","","","","658613649","","","ul. Slaska 23/25","Baltic Business Centre","","Gdynia","","81319","Poland","C434","Refinitiv","CO Performance Excellence Reporting","Product Management","CO Performance Excellence Reporting","","","","","","","","","","","","","",""
"Adam Puckowski","Yes","adam.puckowski@thomsonreuters.com","Senior Data Analyst","(48)587720899|work","Stanowska, Magdalena","","6067189","Content","","","Gdynia","","Kosiorek, Joanna","","","","","","","","","","","","","","","657513649","3649","","ul. Slaska 23/25","Baltic Business Centre","","Gdynia","","81319","Poland","C434","Refinitiv","CO COMS Real-time Pricing & Economics","Content","CO COMS Real-time Pricing & Economics","","","","","","","","","","","","","",""
"Olexandra Nabok","Yes","olexandra.nabok@thomsonreuters.com","Asset Servicing Consultant","'+48 (58) 772 0352|work","Halligan, Michael","","0161203","Professional & Consulting Services","","Benelux funds, Dutch market","Gdynia","","Staniucha, Agata","","5th","","","","","","","","","","","","","286393649","3649","","ul. Slaska 23/25","Baltic Business Centre","","Gdynia","","81319","Poland","C434","Refinitiv","CO Workflow Specialists Asset Servicing","Professional & Consulting Services","CO Workflow Specialists Asset Servicing","Rijks Universiteit van Groningen (Netherlands)","","","","","","","","","","","","",""
"Maciej Slowinski","Yes","maciej.slowinski@thomsonreuters.com","Data Analyst, Level 2","","Beker, Krzysztof","","6073418","Content","","","Gdynia","","Kosiorek, Joanna","","","","","","","","","","","","","","","611113649","3649","","ul. Slaska 23/25","Baltic Business Centre","","Gdynia","","81319","Poland","C434","Refinitiv","CO COMS Contributed Content Ops","Content","CO COMS Contributed Content Ops","","","","","","","","","","","","","",""
"Katarzyna Sokolowska","Yes","katarzyna.sokolowska@thomsonreuters.com","Senior Project Manager, Business Planning & PMO","","Iannucci, Jena","","8015654","Project Management","","","Gdynia","","Lewicka, Joanna","","7","","","","","","","","","","","","","534613649","3649","","ul. Slaska 23/25","Baltic Business Centre","","Gdynia","","81319","Poland","C434","Refinitiv","CO COMS Corporate Disclosures","Project Management","CO Process Engineering & Automation PMO","","Mrs","","","","","","","","","","","",""
"Roman Hnizdiukh","Yes","roman.hnizdiukh@thomsonreuters.com","Senior Content & Automation Support Analyst","'+48587720148|work","Kawczynski, Krzysztof","730082820|mobile","6043753","Content","A quick learner with a desire for continuous personal growth.
Comfortable in interacting with all levels of the organization and public. Able to negotiate and problem solve quickly, accurately, and efficiently. Good in multitasking to achieve individual and team goals.","","Gdynia","","Kosiorek, Joanna","","","","","","","","","","","","","","","241113649","3649","","","Asseco Building, Podolska 21","","Gdynia","","81-321","Poland","1968","Refinitiv","CO COMS Real-time Pricing & Economics","Content","CO COMS Real-time Pricing & Economics","","","","","","","","","","","","","",""
"Wioletta Szmigelska","Yes","wioletta.szmigelska@thomsonreuters.com","Process Management Specialist","'+48(58) 7720575|work","Mazur, Joanna","","0122609","Project Management","","","Gdynia","","Lewicka, Joanna","","","","","","","","","","","","","","","720463649","3649","","ul. Slaska 23/25","Baltic Business Centre","","Gdynia","","81319","Poland","C434","Refinitiv","CO COMS Risk Content & Services","Project Management","CO COMS Risk Content & Services","","","","","","","","","","","","","",""
"Joanna Wisniewska","Yes","joanna.wisniewska@thomsonreuters.com","HR Manager, People Function","0048587721586|work","Witczak, Agata","","0121977","Human Resources","","","Gdynia","","Queroy, Sandrine","","2","","","","","","","","","","","","","534153649","3649","","ul. Slaska 23/25","Baltic Business Centre","","Gdynia","","81319","Poland","C434","Refinitiv","People Solutions & Service Delivery","Human Resources","People Solutions & Service Delivery","","","","","","","","","","","","","",""
"Suliman Barra","Yes","suliman.barra@thomsonreuters.com","Consultant","'+48587721125|work","Younes, Thea","'+48 603280432|mobile","6043476","Professional & Consulting Services","https://www.linkedin.com/in/sulaiman-al-sulaimani-cfa-caia-34879b144/","Eikon
DS
TRSL
EXCEL
Some binary option trading
DBI
VBA
Python","Gdynia","","Staniucha, Agata","","","","","","","","","","","","","","","286393649","3649","","ul. Slaska 23/25","Baltic Business Centre","","Gdynia","","81319","Poland","C434","Refinitiv","CO Workflow Specialists Global Business Consulting","Professional & Consulting Services","CO Workflow Specialists Global Business Consulting","","","","","","","","","","","","","",""
"Agnieszka Uzdrowska","Yes","agnieszka.uzdrowska@thomsonreuters.com","Senior Financial Modelling and Conversion Specialist","'+48 58 772 0697|work","Rudzionek, Robert","","0128302","Professional & Consulting Services","","","Gdynia","","Staniucha, Agata","","","","","","","","","","","","","","","645513649","3649","","ul. Slaska 23/25","Baltic Business Centre","","Gdynia","","81319","Poland","C434","Refinitiv","CO Workflow Specialists Global Business Consulting","Professional & Consulting Services","CO Workflow Specialists","","","","","","","","","","","","","",""
"Manuel Daziale","Yes","daziale.manuel@thomsonreuters.com","Senior Financial Modelling and Conversion Specialist","'+48 731453606|work","Rudzionek, Robert","","6066102","Professional & Consulting Services","","","Gdynia","","Osinska, Joanna","","","","","","","","","","","","","","","645513649","3649","","ul. Slaska 23/25","Baltic Business Centre","","Gdynia","","81319","Poland","C434","Refinitiv","CO Workflow Specialists Global Business Consulting","Professional & Consulting Services","CO Workflow Specialists","","","","","","","","","","","","","",""
"Marko Nikic","Yes","marko.nikic@thomsonreuters.com","Junior Process Management Specialist","'+48587721499|work","Lesniewska, Agata","","6046788","Project Management","","Balkan, Baltic and Nordic markets","Gdynia","","Lewicka, Joanna","","","","","","","","","","","","","","","720463649","3649","","ul. Slaska 23/25","Baltic Business Centre","","Gdynia","","81319","Poland","C434","Refinitiv","CO COMS Risk Content & Services","Project Management","CO COMS Risk Content & Services","","","","","","","","","","","","","",""
"Mateusz Gebski","Yes","mateusz.gebski@thomsonreuters.com","Financial Modelling and Conversion Specialist","'+48587721524|work","Rudzionek, Robert","","6066745","Professional & Consulting Services","","","Gdynia","","Staniucha, Agata","","1","","","","","","","","Sopot","Pomorskie","81-881","","","645513649","3649","","ul. Slaska 23/25","Baltic Business Centre","","Gdynia","","81319","Poland","C434","Refinitiv","CO Workflow Specialists","Professional & Consulting Services","CO Workflow Specialists","Gdansk University of Technology","","","","","","","","","","","","",""
"Julia Majchrzakowska","Yes","julia.majchrzakowska@thomsonreuters.com","Lead Financial Modelling and Conversion Specialist","'+48(58) 7720688|work","Rudzionek, Robert","","8014967","Professional & Consulting Services","","fmc.thomsonreuters.com
www.EcoWin.com","Gdynia","","Staniucha, Agata","","1","","Baltic Business Centre","","ul. Slaska 23/25","","","","Gdynia","","81319","Poland","","645513649","3649","","ul. Slaska 23/25","Baltic Business Centre","","Gdynia","","81319","Poland","C434","Refinitiv","CO Workflow Specialists Global Business Consulting","Professional & Consulting Services","CO Workflow Specialists","","MS","","","","","","","","","","","",""
"Nazar Brodovskyi","Yes","nazar.brodovskyi@thomsonreuters.com","Financial Modelling and Conversion Associate","'+485857721204|work","Rudzionek, Robert","","6064381","Professional & Consulting Services","","","Gdynia","","Staniucha, Agata","","5","","","","","","","","","","","","","645513649","3649","","ul. Slaska 23/25","Baltic Business Centre","","Gdynia","","81319","Poland","C434","Refinitiv","CO Workflow Specialists Global Business Consulting","Professional & Consulting Services","CO Workflow Specialists","University of Wroclaw","","","","","","","","","","","","",""
"Lukasz Jaskiewicz","Yes","lukasz.jaskiewicz@thomsonreuters.com","Financial Modelling and Conversion Associate","","Rolbiecka, Dominika","","6067124","Customer Service & Support","","","Gdynia","","Staniucha, Agata","","","","","","","","","","","","","","","645513649","3649","","","Asseco Building, Podolska 21","","Gdynia","","81-321","Poland","1968","Refinitiv","CO Workflow Specialists Global Business Consulting","Customer Service & Support","CO Workflow Specialists Global Business Consulting","","","","","","","","","","","","","",""
"Kamila Radzienska","Yes","kamila.radzienska@thomsonreuters.com","Senior Case Management Analyst","'+48 58 6983906|work","Stachowiak, Lukasz","","0138774","Research","","","Gdynia","","Lewicka, Joanna","23","4","","","","","","","","","","","","","721733649","3649","","ul. Slaska 23/25","Baltic Business Centre","","Gdynia","","81319","Poland","C434","Refinitiv","CO COMS Risk Content & Services","Research","CO COMS Risk Content & Services","","Mrs","","","","","","","","","","","",""
"Natalia Skaczkowska","Yes","natalia.skaczkowska@thomsonreuters.com","Data Scientist","","Gawron, Tomasz","","6064067","Technology Development","","","Gdynia","","Staniucha, Agata","","","","","","","","","","","","","","","520143649","3649","","ul. Slaska 23/25","Baltic Business Centre","","Gdynia","","81319","Poland","C434","Refinitiv","Technology Product Engineering","Technology Development","Technology Product Engineering","","","Skaczkowska","Natalia","","Natalia","Skaczkowska","","","","","","07/17/2017","natalia.skaczkowska@thomsonreuters.com"
"Marta Hrycz","Maybe","marta.hrycz@thomsonreuters.com","Order Management Specialist","'+48 587721354|work","Kowalska, Karolina","'+48 737905301|mobile","6076689","Customer Service & Support","","","Gdynia","","Pranschke - Rudnicka, Patrycja","","7","","","","","","","","","","","","","534743649","3649","","ul. Slaska 23/25","Baltic Business Centre","","Gdynia","","81319","Poland","C434","Refinitiv","CO Order & Rights Management EMEA","Customer Service & Support","CO Order & Rights Management","","","","","","","","","","","","","",""
"Maria Straszewska (Straszewska (Kempinska))","Maybe","maria.straszewska@thomsonreuters.com","Senior Data Analyst","'+48587720851|work","Trzebinska, Dominika","","0136725","Content","","HSBC, Aviva, HBM, Wellington,","Gdynia","","Kosiorek, Joanna","","","","","","","","","","","","","","","611113649","3649","","ul. Slaska 23/25","Baltic Business Centre","","Gdynia","","81319","Poland","C434","Refinitiv","CO COMS Contributed Content Ops","Content","CO COMS Contributed Content Ops","","","","","","","","","","","","","",""
"Magdalena Pajecka","Maybe","magdalena.jarecka@thomsonreuters.com","Director, Customer Implementation Delivery","'+48587720335|work","Mortensen, Anne Aaro","'+48691601033|mobile","0159663","Professional & Consulting Services","","","Gdynia","","Staniucha, Agata","","","","","","","","","","","","","","","669243649","3649","","ul. Slaska 23/25","Baltic Business Centre","","Gdynia","","81319","Poland","C434","Refinitiv","CO CIPS Implementation Enablement","Professional & Consulting Services","CO CIPS Implementation Enablement","","","","","","","","","","","","","",""
"Aneta Wasko","Maybe","aneta.wasko@thomsonreuters.com","Team Leader","'+48(58) 7721703|work","Karlicki, Michal","","8009023","Content","","","Gdynia","","Lewicka, Joanna","","7","6001","","","","","","","","","","","","655813649","3649","","ul. Slaska 23/25","Baltic Business Centre","","Gdynia","","81319","Poland","C434","Refinitiv","CO COMS Contributed Content Ops","Content","CO COMS Contributed Content Ops","","Mrs","","","","","","","","","","","",""
"Izabela Wysocka","Maybe","i.wysocka@thomsonreuters.com","Data Analyst, Level 2","","Kupper, Agnieszka","","6073359","Content","","","Gdynia","","Kosiorek, Joanna","","","","","","","","","","","","","","","611113649","3649","","ul. Slaska 23/25","Baltic Business Centre","","Gdynia","","81319","Poland","C434","Refinitiv","CO COMS Contributed Content Ops","Content","CO COMS Contributed Content Ops","","","","","","","","","","","","","",""
"Melissa Carneiro Kobus","Maybe","melissa.kobus@thomsonreuters.com","Process Management Specialist","'+48 58 699 4529|work","Lesniewska, Agata","","8011377","Project Management","","","Gdynia","","Lewicka, Joanna","","2","","","","","","","","","","","","","721223649","3649","","ul. Slaska 23/25","Baltic Business Centre","","Gdynia","","81319","Poland","C434","Refinitiv","CO COMS Risk Content & Services","Project Management","CO COMS Risk Content & Services","","MS","","","","","","","","","","","",""
"Anna Stazewska","Maybe","anna.stazewska@thomsonreuters.com","Senior Content Analyst","'+48(58) 772 0059|work","Sureshkumar, Mahendra","","8014894","Content","","","Gdynia","","Kosiorek, Joanna","","3","","","","","","","","","","","","","611013649","3649","","","Asseco Building, Podolska 21","","Gdynia","","81-321","Poland","1968","Refinitiv","CO COMS Core Reference & FI Reference","Content","CO COMS Core Reference & FI Reference","","MISS","","","","","","","","","","","",""
"Magdalena Kontraktewicz","Maybe","magdalena.kontraktewicz@thomsonreuters.com","Senior Data Analyst","'+48 587721689|work","Zurawik, Karolina","'+48 587721689|mobile","6046946","Content","","","Gdynia","","Kosiorek, Joanna","","","","","","","","","","","","","","","657513649","3649","","ul. Slaska 23/25","Baltic Business Centre","","Gdynia","","81319","Poland","C434","Refinitiv","CO COMS Real-time Pricing & Economics","Content","CO COMS Real-time Pricing & Economics","","","","","","","","","","","","","",""
"Karolina Janczak","Maybe","karolina.janczak@thomsonreuters.com","Exchange Content Specialist","'+48(58) 7721431|work","Basavaraju, Sowmya Lakshmi","888484870|mobile","6035278","Content","","","Gdynia","","Kosiorek, Joanna","8/016","8","","","","","","","","","","","","","657513649","3649","","ul. Slaska 23/25","Baltic Business Centre","","Gdynia","","81319","Poland","C434","Refinitiv","CO COMS Real-time Pricing & Economics","Content","CO COMS Real-time Pricing & Economics","","","","","","","","","","","","","",""
"Agata Slowinska (Skupin)","Maybe","agata.skupin@thomsonreuters.com","Senior Data Analyst","'+48 (58) 772 0173|work","Syed, Firoz","","6040318","Content","","","Gdynia","","Kosiorek, Joanna","","","","","","","","","","","","","","","241233649","3649","","ul. Slaska 23/25","Baltic Business Centre","","Gdynia","","81319","Poland","C434","Refinitiv","CO COMS Real-time Pricing & Economics","Content","CO COMS Real-time Pricing & Economics","","","","","","","","","","","","","",""
"Agata Brzeziewicz","Maybe","a.brzeziewicz@thomsonreuters.com","Data Analyst, Level 2","","Sobkowiak, Agnieszka","","6063010","Content","","","Gdynia","","Kosiorek, Joanna","","8","","","","","","","","","","","","","657513649","3649","","ul. Slaska 23/25","Baltic Business Centre","","Gdynia","","81319","Poland","C434","Refinitiv","CO COMS Real-time Pricing & Economics","Content","CO COMS Real-time Pricing & Economics","","","","","","","","","","","","","",""
"Alicja Owczarz-Kozubska","No","alicja.owczarz-kozubska@thomsonreuters.com","Customer On-Boarding Specialist","'+ 48 58 772 210 46|work","Langowska, Jagoda","","6077329","Technology Operations","","","Gdynia","","Staniucha, Agata","","","","","","","","","","","","","","","676213649","3649","","ul. Slaska 23/25","Baltic Business Centre","","Gdynia","","81319","Poland","C434","Refinitiv","CO CIPS Implementation Management","Technology Operations","CO CIPS Implementation Management","","","","","","","","","","","","","",""
"Pasqualino Guidotti","No","pasqualino.guidotti@thomsonreuters.com","Content Specialist Lead","'+48 587720968|work","Mazur, Joanna","'+48 728 868 277|mobile","0145023","Content","","","Gdynia","","Lewicka, Joanna","","","","","","","","","","","","","","","720463649","3649","","","Asseco Building, Podolska 21","","Gdynia","","81-321","Poland","1968","Refinitiv","CO COMS Risk Content & Services","Content","CO COMS Risk Content & Services","Bologna University","","","","","","","","","","","","",""
"Katarzyna Dombrowska","No","katarzyna.dombrowska@thomsonreuters.com","Data Analyst","'+48(58) 7721490|work","Csiki, Emese","","6045445","Content","","","Gdynia","","Kosiorek, Joanna","","","","","","","","","","","","","","","655313649","3649","","ul. Slaska 23/25","Baltic Business Centre","","Gdynia","","81319","Poland","C434","Refinitiv","CO COMS Core Reference & FI Reference","Content","CO COMS Core Reference & FI Reference","","","","","","","","","","","","","",""
"Joanna Zabrocka","No","joanna.zabrocka@thomsonreuters.com","Expenses Management & Compliance Specialist","'+48587720189|work","Jaremczuk, Ewa","","6074189","Administration","I am a Gdynia born graduate of Maritime University. 
For the past 13 years I have been manning roles of Team and Executive Assistant in Germany and United Kingdom in automotive industry,hospitality, finance,watchlist filtering and trade compliance solutions.
I have become a part of Gdynia Administration Team as of October 2018, and am looking forward to upcoming challenges in my new role.
EXPERTISE
Resourceful and professional Administarative Assistant with experience providing support
to senior level executives and team members. Adept at organizing large scale meetings,
coordinating international travel, managing third party vendors, staff and office
management. Familiar with financial reports and Invooces processing.Skilled at multitasking and able to work to tight deadlines. A strong
communicator with a passion for providing exceptional customer service.","","Gdynia","","Queroy, Sandrine","","2","","","","","","","","","","","","","520103649","3649","","ul. Slaska 23/25","Baltic Business Centre","","Gdynia","","81319","Poland","C434","Refinitiv","People Solutions & Service Delivery","Administration","People Solutions & Service Delivery","","","","","","","","","","","","","",""
"Katarzyna Olenycz","No","katarzyna.olenycz@thomsonreuters.com","Content Specialist","'+48 58 772 05 32|work","Sukumar, Sairam","","8020054","Content","","","Gdynia","","Kosiorek, Joanna","","","","","","","","","","","","","","","655213649","3649","","ul. Slaska 23/25","Baltic Business Centre","","Gdynia","","81319","Poland","C434","Refinitiv","CO COMS Company Financials","Content","CO COMS Company Financials","","","","","","","","","","","","","",""
"Aleksandra Chorzelewska","No","aleksandra.chorzelewska@thomsonreuters.com","Partner Manager","'+48(58) 7721852|work","Baker Relf, Kerry","'+48 691 600 955|mobile","8004245","Sourcing","I joined Reuters in 2006, as Data Analyst in Estimates Department. In 2008 I moved to Lipper where I spent 10 years, being responsible for funds, feeds production, and later for products - I was Product Specialist for fund factsheets and in 2015 I became Solvency II Product Specialist. In 2018 I decided to continue my career in Core Partner Marketplace department, and I joined the team as a Partner Manager.

Graduated from Faculty of Economics at Gdansk University, Poland. Interested in languages (fluent Polish, English, Spanish, and a few more at basic level), travelling and dancing. 

Since 2014, also a Trainer within Trainer Certification Program, responsible for delivering trainings on Excel, Time Management, Effective Communication in Business and Project Management.","Negotiations, mutual funds, fund factsheets, Solvency II, trainings, project management, time management, effective communication in business","Gdynia","","Pranschke - Rudnicka, Patrycja","","6","","","","","","","","","","","","","696613649","3649","","ul. Slaska 23/25","Baltic Business Centre","","Gdynia","","81319","Poland","C434","Refinitiv","Sales & Acct Mgmt Partners","Sourcing","Sales & Acct Mgmt Partners","","Miss","","","","","","","","","","","",""
